ISO-10303-21;
HEADER;
/* Generated by software containing ST-Developer
 * from STEP Tools, Inc. (www.steptools.com) 
 */

FILE_DESCRIPTION(
/* description */ (''),
/* implementation_level */ '2;1');

FILE_NAME(
/* name */ 'Y:/products/CAD0003 - Box feet 25mm/Box feet 25mm v1.step',

/* time_stamp */ '2019-08-08T14:50:37+02:00',
/* author */ (''),
/* organization */ (''),
/* preprocessor_version */ 'ST-DEVELOPER v18',
/* originating_system */ 'Autodesk Translation Framework v8.2.0.1029',
/* authorisation */ '');

FILE_SCHEMA (('AUTOMOTIVE_DESIGN { 1 0 10303 214 3 1 1 }'));
ENDSEC;

DATA;
#10=MECHANICAL_DESIGN_GEOMETRIC_PRESENTATION_REPRESENTATION('',(#13),#220);
#11=SHAPE_REPRESENTATION_RELATIONSHIP('SRR','None',#227,#12);
#12=ADVANCED_BREP_SHAPE_REPRESENTATION('',(#14),#219);
#13=STYLED_ITEM('',(#236),#14);
#14=MANIFOLD_SOLID_BREP('Body1',#118);
#15=CYLINDRICAL_SURFACE('',#137,6.);
#16=CYLINDRICAL_SURFACE('',#141,12.5);
#17=CYLINDRICAL_SURFACE('',#145,3.1);
#18=FACE_BOUND('',#34,.T.);
#19=FACE_BOUND('',#39,.T.);
#20=FACE_BOUND('',#42,.T.);
#21=PLANE('',#135);
#22=PLANE('',#143);
#23=PLANE('',#147);
#24=FACE_OUTER_BOUND('',#32,.T.);
#25=FACE_OUTER_BOUND('',#33,.T.);
#26=FACE_OUTER_BOUND('',#35,.T.);
#27=FACE_OUTER_BOUND('',#36,.T.);
#28=FACE_OUTER_BOUND('',#37,.T.);
#29=FACE_OUTER_BOUND('',#38,.T.);
#30=FACE_OUTER_BOUND('',#40,.T.);
#31=FACE_OUTER_BOUND('',#41,.T.);
#32=EDGE_LOOP('',(#82,#83,#84,#85));
#33=EDGE_LOOP('',(#86));
#34=EDGE_LOOP('',(#87));
#35=EDGE_LOOP('',(#88,#89,#90,#91));
#36=EDGE_LOOP('',(#92,#93,#94,#95));
#37=EDGE_LOOP('',(#96,#97,#98,#99));
#38=EDGE_LOOP('',(#100));
#39=EDGE_LOOP('',(#101));
#40=EDGE_LOOP('',(#102,#103,#104,#105));
#41=EDGE_LOOP('',(#106));
#42=EDGE_LOOP('',(#107));
#43=LINE('',#192,#48);
#44=LINE('',#199,#49);
#45=LINE('',#204,#50);
#46=LINE('',#208,#51);
#47=LINE('',#215,#52);
#48=VECTOR('',#154,6.25);
#49=VECTOR('',#163,6.);
#50=VECTOR('',#170,12.25);
#51=VECTOR('',#175,12.5);
#52=VECTOR('',#184,3.1);
#53=CIRCLE('',#133,6.5);
#54=CIRCLE('',#134,6.);
#55=CIRCLE('',#136,12.);
#56=CIRCLE('',#138,6.);
#57=CIRCLE('',#140,12.5);
#58=CIRCLE('',#142,12.5);
#59=CIRCLE('',#144,3.1);
#60=CIRCLE('',#146,3.1);
#61=VERTEX_POINT('',#189);
#62=VERTEX_POINT('',#191);
#63=VERTEX_POINT('',#195);
#64=VERTEX_POINT('',#198);
#65=VERTEX_POINT('',#202);
#66=VERTEX_POINT('',#206);
#67=VERTEX_POINT('',#210);
#68=VERTEX_POINT('',#213);
#69=EDGE_CURVE('',#61,#61,#53,.T.);
#70=EDGE_CURVE('',#61,#62,#43,.T.);
#71=EDGE_CURVE('',#62,#62,#54,.T.);
#72=EDGE_CURVE('',#63,#63,#55,.T.);
#73=EDGE_CURVE('',#62,#64,#44,.T.);
#74=EDGE_CURVE('',#64,#64,#56,.T.);
#75=EDGE_CURVE('',#65,#65,#57,.T.);
#76=EDGE_CURVE('',#65,#63,#45,.T.);
#77=EDGE_CURVE('',#66,#66,#58,.T.);
#78=EDGE_CURVE('',#66,#65,#46,.T.);
#79=EDGE_CURVE('',#67,#67,#59,.T.);
#80=EDGE_CURVE('',#68,#68,#60,.T.);
#81=EDGE_CURVE('',#68,#67,#47,.T.);
#82=ORIENTED_EDGE('',*,*,#69,.T.);
#83=ORIENTED_EDGE('',*,*,#70,.T.);
#84=ORIENTED_EDGE('',*,*,#71,.T.);
#85=ORIENTED_EDGE('',*,*,#70,.F.);
#86=ORIENTED_EDGE('',*,*,#72,.F.);
#87=ORIENTED_EDGE('',*,*,#69,.F.);
#88=ORIENTED_EDGE('',*,*,#71,.F.);
#89=ORIENTED_EDGE('',*,*,#73,.T.);
#90=ORIENTED_EDGE('',*,*,#74,.T.);
#91=ORIENTED_EDGE('',*,*,#73,.F.);
#92=ORIENTED_EDGE('',*,*,#75,.T.);
#93=ORIENTED_EDGE('',*,*,#76,.T.);
#94=ORIENTED_EDGE('',*,*,#72,.T.);
#95=ORIENTED_EDGE('',*,*,#76,.F.);
#96=ORIENTED_EDGE('',*,*,#77,.F.);
#97=ORIENTED_EDGE('',*,*,#78,.T.);
#98=ORIENTED_EDGE('',*,*,#75,.F.);
#99=ORIENTED_EDGE('',*,*,#78,.F.);
#100=ORIENTED_EDGE('',*,*,#74,.F.);
#101=ORIENTED_EDGE('',*,*,#79,.F.);
#102=ORIENTED_EDGE('',*,*,#80,.F.);
#103=ORIENTED_EDGE('',*,*,#81,.T.);
#104=ORIENTED_EDGE('',*,*,#79,.T.);
#105=ORIENTED_EDGE('',*,*,#81,.F.);
#106=ORIENTED_EDGE('',*,*,#77,.T.);
#107=ORIENTED_EDGE('',*,*,#80,.T.);
#108=CONICAL_SURFACE('',#132,6.25,0.785398163397449);
#109=CONICAL_SURFACE('',#139,12.25,0.785398163397449);
#110=ADVANCED_FACE('',(#24),#108,.F.);
#111=ADVANCED_FACE('',(#25,#18),#21,.F.);
#112=ADVANCED_FACE('',(#26),#15,.F.);
#113=ADVANCED_FACE('',(#27),#109,.T.);
#114=ADVANCED_FACE('',(#28),#16,.T.);
#115=ADVANCED_FACE('',(#29,#19),#22,.F.);
#116=ADVANCED_FACE('',(#30),#17,.F.);
#117=ADVANCED_FACE('',(#31,#20),#23,.T.);
#118=CLOSED_SHELL('',(#110,#111,#112,#113,#114,#115,#116,#117));
#119=DERIVED_UNIT_ELEMENT(#121,1.);
#120=DERIVED_UNIT_ELEMENT(#222,3.);
#121=(
MASS_UNIT()
NAMED_UNIT(*)
SI_UNIT(.KILO.,.GRAM.)
);
#122=DERIVED_UNIT((#119,#120));
#123=MEASURE_REPRESENTATION_ITEM('density measure',
POSITIVE_RATIO_MEASURE(7850.),#122);
#124=PROPERTY_DEFINITION_REPRESENTATION(#129,#126);
#125=PROPERTY_DEFINITION_REPRESENTATION(#130,#127);
#126=REPRESENTATION('material name',(#128),#219);
#127=REPRESENTATION('density',(#123),#219);
#128=DESCRIPTIVE_REPRESENTATION_ITEM('Steel','Steel');
#129=PROPERTY_DEFINITION('material property','material name',#229);
#130=PROPERTY_DEFINITION('material property','density of part',#229);
#131=AXIS2_PLACEMENT_3D('placement',#187,#148,#149);
#132=AXIS2_PLACEMENT_3D('',#188,#150,#151);
#133=AXIS2_PLACEMENT_3D('',#190,#152,#153);
#134=AXIS2_PLACEMENT_3D('',#193,#155,#156);
#135=AXIS2_PLACEMENT_3D('',#194,#157,#158);
#136=AXIS2_PLACEMENT_3D('',#196,#159,#160);
#137=AXIS2_PLACEMENT_3D('',#197,#161,#162);
#138=AXIS2_PLACEMENT_3D('',#200,#164,#165);
#139=AXIS2_PLACEMENT_3D('',#201,#166,#167);
#140=AXIS2_PLACEMENT_3D('',#203,#168,#169);
#141=AXIS2_PLACEMENT_3D('',#205,#171,#172);
#142=AXIS2_PLACEMENT_3D('',#207,#173,#174);
#143=AXIS2_PLACEMENT_3D('',#209,#176,#177);
#144=AXIS2_PLACEMENT_3D('',#211,#178,#179);
#145=AXIS2_PLACEMENT_3D('',#212,#180,#181);
#146=AXIS2_PLACEMENT_3D('',#214,#182,#183);
#147=AXIS2_PLACEMENT_3D('',#216,#185,#186);
#148=DIRECTION('axis',(0.,0.,1.));
#149=DIRECTION('refdir',(1.,0.,0.));
#150=DIRECTION('center_axis',(0.,0.,-1.));
#151=DIRECTION('ref_axis',(1.,0.,0.));
#152=DIRECTION('center_axis',(0.,0.,-1.));
#153=DIRECTION('ref_axis',(1.,0.,0.));
#154=DIRECTION('',(0.707106781186548,-8.65956056235494E-17,0.707106781186547));
#155=DIRECTION('center_axis',(0.,0.,1.));
#156=DIRECTION('ref_axis',(1.,0.,0.));
#157=DIRECTION('center_axis',(0.,0.,1.));
#158=DIRECTION('ref_axis',(1.,0.,0.));
#159=DIRECTION('center_axis',(0.,0.,1.));
#160=DIRECTION('ref_axis',(1.,0.,0.));
#161=DIRECTION('center_axis',(0.,0.,1.));
#162=DIRECTION('ref_axis',(1.,0.,0.));
#163=DIRECTION('',(0.,0.,1.));
#164=DIRECTION('center_axis',(0.,0.,1.));
#165=DIRECTION('ref_axis',(1.,0.,0.));
#166=DIRECTION('center_axis',(0.,0.,1.));
#167=DIRECTION('ref_axis',(1.,0.,0.));
#168=DIRECTION('center_axis',(0.,0.,-1.));
#169=DIRECTION('ref_axis',(1.,0.,0.));
#170=DIRECTION('',(0.707106781186548,8.65956056235494E-17,-0.707106781186547));
#171=DIRECTION('center_axis',(0.,0.,1.));
#172=DIRECTION('ref_axis',(1.,0.,0.));
#173=DIRECTION('center_axis',(0.,0.,1.));
#174=DIRECTION('ref_axis',(1.,0.,0.));
#175=DIRECTION('',(0.,0.,-1.));
#176=DIRECTION('center_axis',(0.,0.,1.));
#177=DIRECTION('ref_axis',(1.,0.,0.));
#178=DIRECTION('center_axis',(0.,0.,-1.));
#179=DIRECTION('ref_axis',(1.,0.,0.));
#180=DIRECTION('center_axis',(0.,0.,1.));
#181=DIRECTION('ref_axis',(1.,0.,0.));
#182=DIRECTION('center_axis',(0.,0.,-1.));
#183=DIRECTION('ref_axis',(1.,0.,0.));
#184=DIRECTION('',(0.,0.,-1.));
#185=DIRECTION('center_axis',(0.,0.,1.));
#186=DIRECTION('ref_axis',(1.,0.,0.));
#187=CARTESIAN_POINT('',(0.,0.,0.));
#188=CARTESIAN_POINT('Origin',(0.,0.,0.25));
#189=CARTESIAN_POINT('',(-6.5,7.9602041944578E-16,0.));
#190=CARTESIAN_POINT('Origin',(0.,0.,0.));
#191=CARTESIAN_POINT('',(-6.,-7.34788079488412E-16,0.5));
#192=CARTESIAN_POINT('',(-6.25,7.65404249467096E-16,0.25));
#193=CARTESIAN_POINT('Origin',(0.,0.,0.5));
#194=CARTESIAN_POINT('Origin',(0.,0.,0.));
#195=CARTESIAN_POINT('',(-12.,-1.46957615897682E-15,0.));
#196=CARTESIAN_POINT('Origin',(0.,0.,0.));
#197=CARTESIAN_POINT('Origin',(0.,0.,0.));
#198=CARTESIAN_POINT('',(-6.,-7.34788079488412E-16,5.));
#199=CARTESIAN_POINT('',(-6.,-7.34788079488412E-16,0.));
#200=CARTESIAN_POINT('Origin',(0.,0.,5.));
#201=CARTESIAN_POINT('Origin',(0.,0.,0.25));
#202=CARTESIAN_POINT('',(-12.5,1.53080849893419E-15,0.5));
#203=CARTESIAN_POINT('Origin',(0.,0.,0.5));
#204=CARTESIAN_POINT('',(-12.25,-1.50019232895551E-15,0.25));
#205=CARTESIAN_POINT('Origin',(0.,0.,0.));
#206=CARTESIAN_POINT('',(-12.5,-1.53080849893419E-15,10.));
#207=CARTESIAN_POINT('Origin',(0.,0.,10.));
#208=CARTESIAN_POINT('',(-12.5,-1.53080849893419E-15,0.));
#209=CARTESIAN_POINT('Origin',(0.,0.,5.));
#210=CARTESIAN_POINT('',(-3.1,3.7964050773568E-16,5.));
#211=CARTESIAN_POINT('Origin',(0.,0.,5.));
#212=CARTESIAN_POINT('Origin',(0.,0.,0.));
#213=CARTESIAN_POINT('',(-3.1,-3.7964050773568E-16,10.));
#214=CARTESIAN_POINT('Origin',(0.,0.,10.));
#215=CARTESIAN_POINT('',(-3.1,-3.7964050773568E-16,0.));
#216=CARTESIAN_POINT('Origin',(0.,0.,10.));
#217=UNCERTAINTY_MEASURE_WITH_UNIT(LENGTH_MEASURE(0.01),#221,
'DISTANCE_ACCURACY_VALUE',
'Maximum model space distance between geometric entities at asserted c
onnectivities');
#218=UNCERTAINTY_MEASURE_WITH_UNIT(LENGTH_MEASURE(0.01),#221,
'DISTANCE_ACCURACY_VALUE',
'Maximum model space distance between geometric entities at asserted c
onnectivities');
#219=(
GEOMETRIC_REPRESENTATION_CONTEXT(3)
GLOBAL_UNCERTAINTY_ASSIGNED_CONTEXT((#217))
GLOBAL_UNIT_ASSIGNED_CONTEXT((#221,#223,#224))
REPRESENTATION_CONTEXT('','3D')
);
#220=(
GEOMETRIC_REPRESENTATION_CONTEXT(3)
GLOBAL_UNCERTAINTY_ASSIGNED_CONTEXT((#218))
GLOBAL_UNIT_ASSIGNED_CONTEXT((#221,#223,#224))
REPRESENTATION_CONTEXT('','3D')
);
#221=(
LENGTH_UNIT()
NAMED_UNIT(*)
SI_UNIT(.MILLI.,.METRE.)
);
#222=(
LENGTH_UNIT()
NAMED_UNIT(*)
SI_UNIT($,.METRE.)
);
#223=(
NAMED_UNIT(*)
PLANE_ANGLE_UNIT()
SI_UNIT($,.RADIAN.)
);
#224=(
NAMED_UNIT(*)
SI_UNIT($,.STERADIAN.)
SOLID_ANGLE_UNIT()
);
#225=SHAPE_DEFINITION_REPRESENTATION(#226,#227);
#226=PRODUCT_DEFINITION_SHAPE('',$,#229);
#227=SHAPE_REPRESENTATION('',(#131),#219);
#228=PRODUCT_DEFINITION_CONTEXT('part definition',#233,'design');
#229=PRODUCT_DEFINITION('Box feet 25mm','Box feet 25mm v1',#230,#228);
#230=PRODUCT_DEFINITION_FORMATION('',$,#235);
#231=PRODUCT_RELATED_PRODUCT_CATEGORY('Box feet 25mm v1',
'Box feet 25mm v1',(#235));
#232=APPLICATION_PROTOCOL_DEFINITION('international standard',
'automotive_design',2009,#233);
#233=APPLICATION_CONTEXT(
'Core Data for Automotive Mechanical Design Process');
#234=PRODUCT_CONTEXT('part definition',#233,'mechanical');
#235=PRODUCT('Box feet 25mm','Box feet 25mm v1',$,(#234));
#236=PRESENTATION_STYLE_ASSIGNMENT((#237));
#237=SURFACE_STYLE_USAGE(.BOTH.,#238);
#238=SURFACE_SIDE_STYLE('',(#239));
#239=SURFACE_STYLE_FILL_AREA(#240);
#240=FILL_AREA_STYLE('Steel - Satin',(#241));
#241=FILL_AREA_STYLE_COLOUR('Steel - Satin',#242);
#242=COLOUR_RGB('Steel - Satin',0.627450980392157,0.627450980392157,0.627450980392157);
ENDSEC;
END-ISO-10303-21;
